 OFICINA , MES , TRAMO_HORARIO , NUMERO_AGENTES , NUMERO_ATENCIONES , MEDIA_DIARIA_ATENCIONES , TIEMPO_MEDIO_ESPERA , NIVEL_SERVICIO , TIEMPO_MEDIO_ATENCION , HOMBRE , MUJER , NO BINARIO , ESPA—OL , EUSKERA ,,
 Zuzenean Bilbao , 01/01/2021 , 08:00 , 19 , 778 , 41 , 00:00:58 , 86,25   , 00:07:16 , 332 , 446 , 0 , 770 , 8 ,,
 Zuzenean Bilbao , 01/01/2021 , 08:30 , 20 , 829 , 44 , 00:00:24 , 87,09   , 00:08:15 , 337 , 492 , 0 , 813 , 16 ,,
 Zuzenean Bilbao , 01/01/2021 , 09:00 , 21 , 895 , 47 , 00:00:22 , 84,36   , 00:09:10 , 352 , 543 , 0 , 877 , 18 ,,
 Zuzenean Bilbao , 01/01/2021 , 09:30 , 22 , 913 , 48 , 00:00:25 , 87,08   , 00:08:29 , 303 , 610 , 0 , 897 , 16 ,,
 Zuzenean Bilbao , 01/01/2021 , 10:00 , 21 , 973 , 51 , 00:00:26 , 83,35   , 00:08:35 , 272 , 701 , 0 , 956 , 17 ,,
 Zuzenean Bilbao , 01/01/2021 , 10:30 , 18 , 939 , 49 , 00:00:42 , 82,43   , 00:09:24 , 292 , 647 , 0 , 916 , 23 ,,
 Zuzenean Bilbao , 01/01/2021 , 11:00 , 20 , 976 , 51 , 00:01:17 , 82,68   , 00:09:59 , 320 , 656 , 0 , 953 , 23 ,,
 Zuzenean Bilbao , 01/01/2021 , 11:30 , 21 , 970 , 51 , 00:00:56 , 86,49   , 00:08:58 , 311 , 659 , 0 , 947 , 23 ,,
 Zuzenean Bilbao , 01/01/2021 , 12:00 , 20 , 921 , 48 , 00:00:37 , 83,82   , 00:09:08 , 290 , 631 , 0 , 901 , 20 ,,
 Zuzenean Bilbao , 01/01/2021 , 12:30 , 22 , 898 , 47 , 00:00:26 , 84,74   , 00:09:02 , 302 , 596 , 0 , 874 , 24 ,,
 Zuzenean Bilbao , 01/01/2021 , 13:00 , 21 , 917 , 48 , 00:00:33 , 84,95   , 00:09:06 , 307 , 610 , 0 , 892 , 25 ,,
 Zuzenean Bilbao , 01/01/2021 , 13:30 , 21 , 854 , 45 , 00:00:35 , 84,07   , 00:09:11 , 245 , 609 , 0 , 839 , 15 ,,
 Zuzenean Bilbao , 01/01/2021 , 14:00 , 19 , 910 , 48 , 00:00:49 , 85,38   , 00:08:49 , 331 , 579 , 0 , 892 , 18 ,,
 Zuzenean Bilbao , 01/01/2021 , 14:30 , 23 , 735 , 39 , 00:00:59 , 84,49   , 00:10:45 , 198 , 537 , 0 , 722 , 13 ,,
 Zuzenean Bilbao , 01/01/2021 , 15:00 , 14 , 452 , 24 , 00:03:54 , 84,29   , 00:09:25 , 141 , 311 , 0 , 437 , 15 ,,
 Zuzenean Bilbao , 01/01/2021 , 15:30 , 12 , 433 , 23 , 00:01:51 , 87,99   , 00:11:57 , 149 , 284 , 0 , 422 , 11 ,,
 Zuzenean Bilbao , 01/01/2021 , 16:00 , 11 , 416 , 22 , 00:01:10 , 79,81   , 00:10:10 , 144 , 272 , 0 , 401 , 15 ,,
 Zuzenean Bilbao , 01/01/2021 , 16:30 , 11 , 442 , 23 , 00:01:01 , 85,97   , 00:10:23 , 168 , 274 , 0 , 435 , 7 ,,
 Zuzenean Bilbao , 01/01/2021 , 17:00 , 10 , 405 , 21 , 00:01:05 , 81,73   , 00:10:14 , 151 , 254 , 0 , 387 , 18 ,,
 Zuzenean Bilbao , 01/01/2021 , 17:30 , 10 , 394 , 21 , 00:01:48 , 83,50   , 00:09:55 , 139 , 255 , 0 , 375 , 19 ,,
 Zuzenean Bilbao , 01/01/2021 , 18:00 , 9 , 482 , 25 , 00:02:08 , 81,74   , 00:10:41 , 187 , 295 , 0 , 463 , 19 ,,
 Zuzenean Bilbao , 01/01/2021 , 18:30 , 9 , 412 , 22 , 00:01:32 , 80,83   , 00:08:58 , 196 , 216 , 0 , 393 , 19 ,,
 Zuzenean Bilbao , 01/01/2021 , 19:00 , 9 , 379 , 20 , 00:01:42 , 74,14   , 00:10:25 , 192 , 187 , 0 , 372 , 7 ,,
 Zuzenean Bilbao , 01/01/2021 , 19:30 , 7 , 49 , 3 , 00:01:39 , 89,80   , 00:39:30 , 31 , 18 , 0 , 47 , 2 ,,
 Zuzenean Donostia-San SebastiŠn , 01/01/2021 , 08:00 , 10 , 248 , 14 , 00:00:45 , 84,68   , 00:09:03 , 96 , 152 , 0 , 193 , 55 ,,
 Zuzenean Donostia-San SebastiŠn , 01/01/2021 , 08:30 , 10 , 278 , 15 , 00:01:07 , 86,69   , 00:10:43 , 121 , 157 , 0 , 223 , 55 ,,
 Zuzenean Donostia-San SebastiŠn , 01/01/2021 , 09:00 , 11 , 338 , 19 , 00:01:07 , 84,32   , 00:11:35 , 166 , 172 , 0 , 251 , 87 ,,
 Zuzenean Donostia-San SebastiŠn , 01/01/2021 , 09:30 , 12 , 383 , 21 , 00:01:22 , 80,42   , 00:10:50 , 149 , 234 , 0 , 270 , 113 ,,
 Zuzenean Donostia-San SebastiŠn , 01/01/2021 , 10:00 , 12 , 417 , 23 , 00:01:33 , 79,62   , 00:11:45 , 174 , 243 , 0 , 289 , 128 ,,
 Zuzenean Donostia-San SebastiŠn , 01/01/2021 , 10:30 , 11 , 379 , 21 , 00:01:30 , 77,84   , 00:11:52 , 162 , 217 , 0 , 273 , 106 ,,
 Zuzenean Donostia-San SebastiŠn , 01/01/2021 , 11:00 , 11 , 364 , 20 , 00:01:34 , 82,97   , 00:11:35 , 145 , 219 , 0 , 279 , 85 ,,
 Zuzenean Donostia-San SebastiŠn , 01/01/2021 , 11:30 , 11 , 405 , 22 , 00:02:13 , 83,46   , 00:12:13 , 172 , 233 , 0 , 303 , 102 ,,
 Zuzenean Donostia-San SebastiŠn , 01/01/2021 , 12:00 , 10 , 356 , 20 , 00:01:49 , 82,87   , 00:12:20 , 155 , 201 , 0 , 274 , 82 ,,
 Zuzenean Donostia-San SebastiŠn , 01/01/2021 , 12:30 , 12 , 368 , 20 , 00:01:52 , 79,89   , 00:13:17 , 149 , 219 , 0 , 280 , 88 ,,
 Zuzenean Donostia-San SebastiŠn , 01/01/2021 , 13:00 , 11 , 349 , 19 , 00:01:55 , 83,38   , 00:12:18 , 152 , 197 , 0 , 273 , 76 ,,
 Zuzenean Donostia-San SebastiŠn , 01/01/2021 , 13:30 , 11 , 326 , 18 , 00:01:33 , 82,52   , 00:13:29 , 131 , 195 , 0 , 262 , 64 ,,
 Zuzenean Donostia-San SebastiŠn , 01/01/2021 , 14:00 , 12 , 339 , 19 , 00:01:34 , 80,53   , 00:11:25 , 124 , 215 , 0 , 269 , 70 ,,
 Zuzenean Donostia-San SebastiŠn , 01/01/2021 , 14:30 , 12 , 289 , 16 , 00:01:07 , 82,35   , 00:14:43 , 113 , 176 , 0 , 226 , 63 ,,
 Zuzenean Donostia-San SebastiŠn , 01/01/2021 , 15:00 , 9 , 198 , 11 , 00:01:26 , 88,89   , 00:14:55 , 77 , 121 , 0 , 154 , 44 ,,
 Zuzenean Donostia-San SebastiŠn , 01/01/2021 , 15:30 , 7 , 160 , 9 , 00:00:53 , 85,63   , 00:14:48 , 68 , 92 , 0 , 121 , 39 ,,
 Zuzenean Donostia-San SebastiŠn , 01/01/2021 , 16:00 , 8 , 149 , 8 , 00:01:02 , 85,91   , 00:14:42 , 65 , 84 , 0 , 108 , 41 ,,
 Zuzenean Donostia-San SebastiŠn , 01/01/2021 , 16:30 , 6 , 162 , 9 , 00:00:57 , 81,48   , 00:11:27 , 70 , 92 , 0 , 112 , 50 ,,
 Zuzenean Donostia-San SebastiŠn , 01/01/2021 , 17:00 , 7 , 165 , 9 , 00:00:52 , 86,06   , 00:11:31 , 62 , 103 , 0 , 113 , 52 ,,
 Zuzenean Donostia-San SebastiŠn , 01/01/2021 , 17:30 , 7 , 168 , 9 , 00:01:05 , 86,31   , 00:13:01 , 52 , 116 , 0 , 125 , 43 ,,
 Zuzenean Donostia-San SebastiŠn , 01/01/2021 , 18:00 , 7 , 160 , 9 , 00:01:24 , 88,75   , 00:13:44 , 67 , 93 , 0 , 114 , 46 ,,
 Zuzenean Donostia-San SebastiŠn , 01/01/2021 , 18:30 , 7 , 149 , 8 , 00:01:01 , 89,26   , 00:11:39 , 61 , 88 , 0 , 111 , 38 ,,
 Zuzenean Donostia-San SebastiŠn , 01/01/2021 , 19:00 , 6 , 100 , 6 , 00:00:41 , 78,00   , 00:13:22 , 35 , 65 , 0 , 73 , 27 ,,
 Zuzenean Donostia-San SebastiŠn , 01/01/2021 , 19:30 , 3 , 20 , 1 , 00:01:28 , 100,00   , 00:50:17 , 11 , 9 , 0 , 13 , 7 ,,
 Zuzenean Vitoria-Gasteiz , 01/01/2021 , 08:00 , 9 , 294 , 15 , 00:00:28 , 92,86   , 00:07:28 , 135 , 159 , 0 , 288 , 6 ,,
 Zuzenean Vitoria-Gasteiz , 01/01/2021 , 08:30 , 9 , 317 , 17 , 00:00:33 , 86,12   , 00:09:22 , 123 , 194 , 0 , 312 , 5 ,,
 Zuzenean Vitoria-Gasteiz , 01/01/2021 , 09:00 , 9 , 398 , 21 , 00:00:41 , 82,66   , 00:08:37 , 148 , 250 , 0 , 392 , 6 ,,
 Zuzenean Vitoria-Gasteiz , 01/01/2021 , 09:30 , 9 , 405 , 21 , 00:01:06 , 82,22   , 00:08:40 , 135 , 270 , 0 , 397 , 8 ,,
 Zuzenean Vitoria-Gasteiz , 01/01/2021 , 10:00 , 10 , 464 , 24 , 00:01:31 , 80,60   , 00:08:21 , 164 , 300 , 0 , 454 , 10 ,,
 Zuzenean Vitoria-Gasteiz , 01/01/2021 , 10:30 , 10 , 440 , 23 , 00:01:11 , 78,18   , 00:08:22 , 136 , 304 , 0 , 428 , 12 ,,
 Zuzenean Vitoria-Gasteiz , 01/01/2021 , 11:00 , 10 , 476 , 25 , 00:01:16 , 81,09   , 00:09:32 , 175 , 301 , 0 , 469 , 7 ,,
 Zuzenean Vitoria-Gasteiz , 01/01/2021 , 11:30 , 10 , 449 , 24 , 00:01:01 , 80,40   , 00:08:20 , 163 , 286 , 0 , 441 , 8 ,,
 Zuzenean Vitoria-Gasteiz , 01/01/2021 , 12:00 , 10 , 443 , 23 , 00:01:29 , 83,52   , 00:09:37 , 156 , 287 , 0 , 437 , 6 ,,
 Zuzenean Vitoria-Gasteiz , 01/01/2021 , 12:30 , 9 , 417 , 22 , 00:01:41 , 82,49   , 00:08:57 , 162 , 255 , 0 , 408 , 9 ,,
 Zuzenean Vitoria-Gasteiz , 01/01/2021 , 13:00 , 10 , 435 , 23 , 00:01:20 , 84,60   , 00:09:24 , 142 , 293 , 0 , 423 , 12 ,,
 Zuzenean Vitoria-Gasteiz , 01/01/2021 , 13:30 , 13 , 460 , 24 , 00:00:43 , 77,83   , 00:09:50 , 155 , 305 , 0 , 446 , 14 ,,
 Zuzenean Vitoria-Gasteiz , 01/01/2021 , 14:00 , 13 , 469 , 25 , 00:00:32 , 80,60   , 00:09:39 , 215 , 254 , 0 , 467 , 2 ,,
 Zuzenean Vitoria-Gasteiz , 01/01/2021 , 14:30 , 13 , 384 , 20 , 00:00:42 , 80,99   , 00:11:45 , 130 , 254 , 0 , 377 , 7 ,,
 Zuzenean Vitoria-Gasteiz , 01/01/2021 , 15:00 , 8 , 245 , 13 , 00:00:42 , 85,31   , 00:09:42 , 69 , 176 , 0 , 240 , 5 ,,
 Zuzenean Vitoria-Gasteiz , 01/01/2021 , 15:30 , 7 , 236 , 12 , 00:00:35 , 80,93   , 00:09:29 , 88 , 148 , 0 , 232 , 4 ,,
 Zuzenean Vitoria-Gasteiz , 01/01/2021 , 16:00 , 6 , 229 , 12 , 00:00:35 , 83,84   , 00:09:08 , 92 , 137 , 0 , 227 , 2 ,,
 Zuzenean Vitoria-Gasteiz , 01/01/2021 , 16:30 , 6 , 201 , 11 , 00:00:40 , 85,57   , 00:08:57 , 81 , 120 , 0 , 194 , 7 ,,
 Zuzenean Vitoria-Gasteiz , 01/01/2021 , 17:00 , 6 , 209 , 11 , 00:00:54 , 81,82   , 00:09:07 , 82 , 127 , 0 , 204 , 5 ,,
 Zuzenean Vitoria-Gasteiz , 01/01/2021 , 17:30 , 5 , 192 , 10 , 00:01:01 , 82,29   , 00:11:15 , 81 , 111 , 0 , 187 , 5 ,,
 Zuzenean Vitoria-Gasteiz , 01/01/2021 , 18:00 , 5 , 203 , 11 , 00:00:54 , 85,22   , 00:07:50 , 76 , 127 , 0 , 197 , 6 ,,
 Zuzenean Vitoria-Gasteiz , 01/01/2021 , 18:30 , 5 , 187 , 10 , 00:00:53 , 86,63   , 00:08:58 , 88 , 99 , 0 , 181 , 6 ,,
 Zuzenean Vitoria-Gasteiz , 01/01/2021 , 19:00 , 5 , 137 , 7 , 00:00:49 , 81,02   , 00:08:11 , 70 , 67 , 0 , 137 , 0 ,,
 Zuzenean Vitoria-Gasteiz , 01/01/2021 , 19:30 , 3 , 18 , 1 , 00:00:43 , 77,78   , 00:26:38 , 6 , 12 , 0 , 17 , 1 ,,
