Numero,precio,producto,marca
1,87,memoria flash,hp
2,65,memoria flash,toshiba
3,66,memoria flash,samsung
4,76,memoria flash,sony
5,61,memoria flash,hp
6,53,memoria flash,toshiba
7,84,memoria flash,samsung
8,44,memoria flash,hp
9,48,memoria flash,hp
10,70,memoria flash,toshiba
11,93,memoria flash,hp
12,82,memoria flash,toshiba
13,84,memoria flash,hp
14,40,memoria flash,samsung
15,52,memoria flash,hp
